…
# Histogram of the total number of steps taken each day


```r
Activity = na.omit(activity)
group_sum <- activity %>%
     group_by(date) %>%
     summarise_at(vars(steps),
                  list(Sum_Frequency = sum))
group_sum
```

```
## # A tibble: 61 × 2
##    date       Sum_Frequency
##    <date>             <dbl>
##  1 2012-10-01            NA
##  2 2012-10-02           126
##  3 2012-10-03         11352
##  4 2012-10-04         12116
##  5 2012-10-05         13294
##  6 2012-10-06         15420
##  7 2012-10-07         11015
##  8 2012-10-08            NA
##  9 2012-10-09         12811
## 10 2012-10-10          9900
## # ℹ 51 more rows
```
…
# Mean number of steps taken each day

Mean of the total number of steps taken per day is shown below.


```r
group_mean <- Activity %>%
    group_by(date) %>%
    summarise_at(vars(steps),
                 list(Mean = mean))
group_mean
```

```
## # A tibble: 53 × 2
##    date         Mean
##    <date>      <dbl>
##  1 2012-10-02  0.438
##  2 2012-10-03 39.4  
##  3 2012-10-04 42.1  
##  4 2012-10-05 46.2  
##  5 2012-10-06 53.5  
##  6 2012-10-07 38.2  
##  7 2012-10-09 44.5  
##  8 2012-10-10 34.4  
##  9 2012-10-11 35.8  
## 10 2012-10-12 60.4  
## # ℹ 43 more rows
```
# median number of steps taken each day

Median of the total number of steps taken per day is shown below.


```r
group_median <- Activity %>%
    group_by(date) %>%
    summarise_at(vars(steps),
                 list(Median = median))
group_median
```

```
## # A tibble: 53 × 2
##    date       Median
##    <date>      <dbl>
##  1 2012-10-02      0
##  2 2012-10-03      0
##  3 2012-10-04      0
##  4 2012-10-05      0
##  5 2012-10-06      0
##  6 2012-10-07      0
##  7 2012-10-09      0
##  8 2012-10-10      0
##  9 2012-10-11      0
## 10 2012-10-12      0
## # ℹ 43 more rows
```
…
# Histogram of the total number of steps taken each day after missing values are imputedS

Again, we used ggplot function to make a histogram of the total number of steps taken each day. 


```r
group_sum <- na.omit(ImputedData) %>%
    group_by(date) %>%
    summarise_at(vars(steps),
                 list(Sum_Frequency = sum))
group_sum
```

```
## # A tibble: 61 × 2
##    date       Sum_Frequency
##    <date>             <dbl>
##  1 2012-10-01         1981.
##  2 2012-10-02          126 
##  3 2012-10-03        11352 
##  4 2012-10-04        12116 
##  5 2012-10-05        13294 
##  6 2012-10-06        15420 
##  7 2012-10-07        11015 
##  8 2012-10-08         1981.
##  9 2012-10-09        12811 
## 10 2012-10-10         9900 
## # ℹ 51 more rows
```
…
Now, we Calculate and report the mean and median total number of steps taken per day. We see that the NA values are replaced with mean and median values which could give us a idea about missing values. 


```r
group_mean <- na.omit(ImputedData) %>%
    group_by(date) %>%
    summarise_at(vars(steps),
                 list(Mean = mean))
group_mean
```

```
## # A tibble: 61 × 2
##    date         Mean
##    <date>      <dbl>
##  1 2012-10-01 37.4  
##  2 2012-10-02  0.438
##  3 2012-10-03 39.4  
##  4 2012-10-04 42.1  
##  5 2012-10-05 46.2  
##  6 2012-10-06 53.5  
##  7 2012-10-07 38.2  
##  8 2012-10-08 37.4  
##  9 2012-10-09 44.5  
## 10 2012-10-10 34.4  
## # ℹ 51 more rows
```

```r
group_median <- na.omit(ImputedData) %>%
    group_by(date) %>%
    summarise_at(vars(steps),
                 list(Median = median))
group_median
```

```
## # A tibble: 61 × 2
##    date       Median
##    <date>      <dbl>
##  1 2012-10-01   37.4
##  2 2012-10-02    0  
##  3 2012-10-03    0  
##  4 2012-10-04    0  
##  5 2012-10-05    0  
##  6 2012-10-06    0  
##  7 2012-10-07    0  
##  8 2012-10-08   37.4
##  9 2012-10-09    0  
## 10 2012-10-10    0  
## # ℹ 51 more rows
```
…
